-------------------------------------------------------------------------------
Test set: com.tsystems.javaschool.tasks.calculator.CalculatorTest
-------------------------------------------------------------------------------
Tests run: 20, Failures: 0, Errors: 0, Skipped: 0, Time elapsed: 0.069 sec
